\relax 
\providecommand\hyper@newdestlabel[2]{}
\providecommand{\transparent@use}[1]{}
\providecommand*\new@tpo@label[2]{}
\catcode `"\active 
\providecommand\HyperFirstAtBeginDocument{\AtBeginDocument}
\HyperFirstAtBeginDocument{\ifx\hyper@anchor\@undefined
\global\let\oldcontentsline\contentsline
\gdef\contentsline#1#2#3#4{\oldcontentsline{#1}{#2}{#3}}
\global\let\oldnewlabel\newlabel
\gdef\newlabel#1#2{\newlabelxx{#1}#2}
\gdef\newlabelxx#1#2#3#4#5#6{\oldnewlabel{#1}{{#2}{#3}}}
\AtEndDocument{\ifx\hyper@anchor\@undefined
\let\contentsline\oldcontentsline
\let\newlabel\oldnewlabel
\fi}
\fi}
\global\let\hyper@last\relax 
\gdef\HyperFirstAtBeginDocument#1{#1}
\providecommand\HyField@AuxAddToFields[1]{}
\providecommand\HyField@AuxAddToCoFields[2]{}
\providecommand\BKM@entry[2]{}
\@input{vorlage/titelseite.aux}
\babel@aux{german}{}
\@input{chapters/inhalt.aux}
\BKM@entry{id=1,dest={636861707465722E31},srcline={1}}{45696E6C656974756E67}
\BKM@entry{id=2,dest={73656374696F6E2E312E31},srcline={23}}{4465736B746F70696E7374616C6C6174696F6E}
\BKM@entry{id=3,dest={636861707465722E32},srcline={40}}{536572766572696E7374616C6C6174696F6E}
\BKM@entry{id=4,dest={73656374696F6E2E322E31},srcline={43}}{416E666F72646572756E67656E}
\BKM@entry{id=5,dest={73656374696F6E2E322E32},srcline={48}}{496E7465726E6574696E666F726D6174696F6E736469656E737420696E7374616C6C6174696F6E}
\BKM@entry{id=6,dest={73656374696F6E2E322E33},srcline={144}}{4D6F6E676F444220696E7374616C6C696572656E}
\BKM@entry{id=7,dest={73656374696F6E2E322E34},srcline={226}}{456E65726769656F7074696F6E656E}
\BKM@entry{id=8,dest={73656374696F6E2E322E35},srcline={246}}{4261636B656E6420696E7374616C6C696572656E}
\BKM@entry{id=9,dest={73656374696F6E2E322E36},srcline={286}}{46726F6E74656E6420696E7374616C6C696572656E}
\global\@namedef{scr@dte@chapter@lastmaxnumwidth}{11.8799pt}
\global\@namedef{scr@dte@section@lastmaxnumwidth}{19.68687pt}
