\relax 
\providecommand\hyper@newdestlabel[2]{}
\providecommand{\transparent@use}[1]{}
\@writefile{toc}{\contentsline {chapter}{\numberline {3}\LaTeX  \ - Fortgeschrittene Funktionen}{13}{chapter.3}\protected@file@percent }
\@writefile{lof}{\addvspace {10\p@ }}
\@writefile{lot}{\addvspace {10\p@ }}
\@writefile{lol}{\addvspace {10\p@ }}
\newlabel{kapitel-latex}{{3}{13}{\LaTeX \ - Fortgeschrittene Funktionen}{chapter.3}{}}
\@writefile{toc}{\contentsline {section}{\numberline {3.1}Grafiken}{13}{section.3.1}\protected@file@percent }
\newlabel{kapitel-latex-grafiken}{{3.1}{13}{Grafiken}{section.3.1}{}}
\@writefile{lot}{\contentsline {table}{\numberline {3.1}{\ignorespaces Argumentoptionen f\IeC {\"u}r das Einbinden von Grafiken\relax }}{13}{table.caption.13}\protected@file@percent }
\newlabel{table-grafiken}{{3.1}{13}{Argumentoptionen für das Einbinden von Grafiken\relax }{table.caption.13}{}}
\@writefile{toc}{\contentsline {section}{\numberline {3.2}Tabellen}{14}{section.3.2}\protected@file@percent }
\newlabel{kapitel-latex-tabellen}{{3.2}{14}{Tabellen}{section.3.2}{}}
\@writefile{lot}{\contentsline {table}{\numberline {3.2}{\ignorespaces \IeC {\"U}bersicht der Parameter f\IeC {\"u}r die \textit  {tabular}-Umgebung\relax }}{14}{table.caption.14}\protected@file@percent }
\newlabel{table-table-parameter}{{3.2}{14}{Übersicht der Parameter für die \textit {tabular}-Umgebung\relax }{table.caption.14}{}}
\@writefile{lot}{\contentsline {table}{\numberline {3.3}{\ignorespaces Beispieltabelle\relax }}{15}{table.caption.15}\protected@file@percent }
\newlabel{table-exampeltable}{{3.3}{15}{Beispieltabelle\relax }{table.caption.15}{}}
\newlabel{exampeltable-code}{{3.1}{15}{Tabelle \ref {table-exampeltable} Code}{lstlisting.3.1}{}}
\@writefile{lol}{\contentsline {lstlisting}{\numberline {3.1}Tabelle \ref  {table-exampeltable} Code}{15}{lstlisting.3.1}\protected@file@percent }
\@writefile{lot}{\contentsline {table}{\numberline {3.4}{\ignorespaces \IeC {\"U}bersicht \IeC {\"u}ber die wichtigsten Befehle f\IeC {\"u}r horizontale Trennlinien in Tabellen\relax }}{16}{table.caption.17}\protected@file@percent }
\newlabel{table-tables-horizontallines}{{3.4}{16}{Übersicht über die wichtigsten Befehle für horizontale Trennlinien in Tabellen\relax }{table.caption.17}{}}
\@writefile{lot}{\contentsline {table}{\numberline {3.5}{\ignorespaces Beispieltabelle2\relax }}{16}{table.caption.18}\protected@file@percent }
\newlabel{table-exampeltable2}{{3.5}{16}{Beispieltabelle2\relax }{table.caption.18}{}}
\newlabel{exampeltable2-code}{{3.2}{17}{Tabelle \ref {table-exampeltable2} Code}{lstlisting.3.2}{}}
\@writefile{lol}{\contentsline {lstlisting}{\numberline {3.2}Tabelle \ref  {table-exampeltable2} Code}{17}{lstlisting.3.2}\protected@file@percent }
\@writefile{lot}{\contentsline {table}{\numberline {3.6}{\ignorespaces Beispieltabelle f\IeC {\"u}r Zeilenh\IeC {\"o}he\relax }}{17}{table.caption.20}\protected@file@percent }
\newlabel{table-zeilenhoehe}{{3.6}{17}{Beispieltabelle für Zeilenhöhe\relax }{table.caption.20}{}}
\newlabel{listing-table-zeilenhoehe}{{3.3}{17}{Tabelle \ref {table-zeilenhoehe} Code}{lstlisting.3.3}{}}
\@writefile{lol}{\contentsline {lstlisting}{\numberline {3.3}Tabelle \ref  {table-zeilenhoehe} Code}{17}{lstlisting.3.3}\protected@file@percent }
\@writefile{toc}{\contentsline {section}{\numberline {3.3}Floats}{19}{section.3.3}\protected@file@percent }
\newlabel{kapitel-latex-floats}{{3.3}{19}{Floats}{section.3.3}{}}
\@writefile{toc}{\contentsline {subsection}{\numberline {3.3.1}Positionierung}{19}{subsection.3.3.1}\protected@file@percent }
\newlabel{kapitel- latex-floats-position}{{3.3.1}{19}{Positionierung}{subsection.3.3.1}{}}
\@writefile{lot}{\contentsline {table}{\numberline {3.7}{\ignorespaces Positionierungsregeln f\IeC {\"u}r Floats\relax }}{19}{table.caption.22}\protected@file@percent }
\newlabel{table-floats-position}{{3.7}{19}{Positionierungsregeln für Floats\relax }{table.caption.22}{}}
\newlabel{code-wrapfigure}{{3.4}{20}{Code \textit {wrapfigure}}{lstlisting.3.4}{}}
\@writefile{lol}{\contentsline {lstlisting}{\numberline {3.4}Code \textit  {wrapfigure}}{20}{lstlisting.3.4}\protected@file@percent }
\@writefile{toc}{\contentsline {subsection}{\numberline {3.3.2}Positionierung - \textit  {h} vs. \textit  {H}}{21}{subsection.3.3.2}\protected@file@percent }
\newlabel{kapitel- latex-floats-position-bsp}{{3.3.2}{21}{Positionierung - \textit {h} vs. \textit {H}}{subsection.3.3.2}{}}
\@writefile{lof}{\contentsline {figure}{\numberline {3.1}{\ignorespaces Grafik, die mit Hilfe des [\textit  {h}]ere-Arguments platziert wurde.\relax }}{22}{figure.caption.25}\protected@file@percent }
\newlabel{img-bsp-h}{{3.1}{22}{Grafik, die mit Hilfe des [\textit {h}]ere-Arguments platziert wurde.\relax }{figure.caption.25}{}}
\@writefile{lof}{\contentsline {figure}{\numberline {3.2}{\ignorespaces Grafik, die mit Hilfe des [\textit  {H}]ere-Arguments platziert wurde.\relax }}{23}{figure.caption.26}\protected@file@percent }
\newlabel{img-bsp-H}{{3.2}{23}{Grafik, die mit Hilfe des [\textit {H}]ere-Arguments platziert wurde.\relax }{figure.caption.26}{}}
\@writefile{toc}{\contentsline {subsection}{\numberline {3.3.3}Beschriftungen}{24}{subsection.3.3.3}\protected@file@percent }
\newlabel{kapitel- latex-floats-capref}{{3.3.3}{24}{Beschriftungen}{subsection.3.3.3}{}}
\@writefile{lof}{\contentsline {figure}{\numberline {3.3}{\ignorespaces Beispielcaption\relax }}{24}{figure.caption.27}\protected@file@percent }
\newlabel{img-capref}{{3.3}{24}{Beispielcaption\relax }{figure.caption.27}{}}
\newlabel{listing-capref}{{3.5}{25}{Code Caption/Ref}{lstlisting.3.5}{}}
\@writefile{lol}{\contentsline {lstlisting}{\numberline {3.5}Code Caption/Ref}{25}{lstlisting.3.5}\protected@file@percent }
\newlabel{SC@1}{{\caption@xref {??}{ on input line 277}}{25}{Beschriftungen}{figure.caption.29}{}}
\@writefile{lof}{\contentsline {figure}{\numberline {3.4}{\ignorespaces Diese Cation ist auf der rechten Seite der Grafik zu sehen.\relax }}{25}{figure.caption.29}\protected@file@percent }
\newlabel{img-scfigure}{{3.4}{25}{Diese Cation ist auf der rechten Seite der Grafik zu sehen.\relax }{figure.caption.29}{}}
\newlabel{listing-scfigure}{{3.6}{25}{Code SCfigure}{lstlisting.3.6}{}}
\@writefile{lol}{\contentsline {lstlisting}{\numberline {3.6}Code SCfigure}{25}{lstlisting.3.6}\protected@file@percent }
\@writefile{toc}{\contentsline {subsection}{\numberline {3.3.4}Subfloats}{25}{subsection.3.3.4}\protected@file@percent }
\newlabel{kapitel- latex-floats-subfloats}{{3.3.4}{25}{Subfloats}{subsection.3.3.4}{}}
\newlabel{img-subfloat-1}{{3.5a}{26}{cat 1\relax }{figure.caption.31}{}}
\newlabel{sub@img-subfloat-1}{{a}{26}{cat 1\relax }{figure.caption.31}{}}
\newlabel{img-subfloat-2}{{3.5b}{26}{cat 2\relax }{figure.caption.31}{}}
\newlabel{sub@img-subfloat-2}{{b}{26}{cat 2\relax }{figure.caption.31}{}}
\newlabel{img-subfloat-3}{{3.5c}{26}{cat 3\relax }{figure.caption.31}{}}
\newlabel{sub@img-subfloat-3}{{c}{26}{cat 3\relax }{figure.caption.31}{}}
\@writefile{lof}{\contentsline {figure}{\numberline {3.5}{\ignorespaces Lot of cats\relax }}{26}{figure.caption.31}\protected@file@percent }
\newlabel{img-subfloat}{{3.5}{26}{Lot of cats\relax }{figure.caption.31}{}}
\newlabel{listing-subfloat}{{3.7}{27}{Code Subfigure}{lstlisting.3.7}{}}
\@writefile{lol}{\contentsline {lstlisting}{\numberline {3.7}Code Subfigure}{27}{lstlisting.3.7}\protected@file@percent }
\@writefile{toc}{\contentsline {section}{\numberline {3.4}Auflistungen und Aufz\IeC {\"a}hlungen}{27}{section.3.4}\protected@file@percent }
\newlabel{kapitel-latex-auflistungen}{{3.4}{27}{Auflistungen und Aufzählungen}{section.3.4}{}}
\@writefile{toc}{\contentsline {subsection}{\numberline {3.4.1}\emph  {description}-Umgebung}{28}{subsection.3.4.1}\protected@file@percent }
\newlabel{kapitel-latex-auflistungen-description}{{3.4.1}{28}{\emph {description}-Umgebung}{subsection.3.4.1}{}}
\newlabel{description-code}{{3.8}{28}{\emph {description}-Umgebung Codebeispiel}{lstlisting.3.8}{}}
\@writefile{lol}{\contentsline {lstlisting}{\numberline {3.8}\emph  {description}-Umgebung Codebeispiel}{28}{lstlisting.3.8}\protected@file@percent }
\@writefile{toc}{\contentsline {subsection}{\numberline {3.4.2}\emph  {itemize}-Umgebung}{29}{subsection.3.4.2}\protected@file@percent }
\newlabel{kapitel-latex-auflistungen-itemize}{{3.4.2}{29}{\emph {itemize}-Umgebung}{subsection.3.4.2}{}}
\newlabel{itemize-code}{{3.9}{29}{\emph {itemize}-Umgebung Codebeispiel}{lstlisting.3.9}{}}
\@writefile{lol}{\contentsline {lstlisting}{\numberline {3.9}\emph  {itemize}-Umgebung Codebeispiel}{29}{lstlisting.3.9}\protected@file@percent }
\@writefile{toc}{\contentsline {subsection}{\numberline {3.4.3}\emph  {enumerate}-Umgebung}{30}{subsection.3.4.3}\protected@file@percent }
\newlabel{kapitel-latex-auflistungen-enumerate}{{3.4.3}{30}{\emph {enumerate}-Umgebung}{subsection.3.4.3}{}}
\newlabel{enumerate-code}{{3.10}{30}{\emph {enumerate}-Umgebung Codebeispiel}{lstlisting.3.10}{}}
\@writefile{lol}{\contentsline {lstlisting}{\numberline {3.10}\emph  {enumerate}-Umgebung Codebeispiel}{30}{lstlisting.3.10}\protected@file@percent }
\@writefile{toc}{\contentsline {section}{\numberline {3.5}Quellcode-Umgebung/Listings}{31}{section.3.5}\protected@file@percent }
\newlabel{kapitel-latex-listings}{{3.5}{31}{Quellcode-Umgebung/Listings}{section.3.5}{}}
\newlabel{listing-listing}{{3.11}{31}{Listing Codebeispiel}{lstlisting.3.11}{}}
\@writefile{lol}{\contentsline {lstlisting}{\numberline {3.11}Listing Codebeispiel}{31}{lstlisting.3.11}\protected@file@percent }
\newlabel{listing-listing-import}{{3.12}{32}{importiere Datei src/quellcode-import-bsp.tex}{lstlisting.3.12}{}}
\@writefile{lol}{\contentsline {lstlisting}{\numberline {3.12}importiere Datei src/quellcode-import-bsp.tex}{32}{lstlisting.3.12}\protected@file@percent }
\newlabel{listing-style-schauf}{{3.13}{32}{Listingbeispiel mit dem Style \textit {Schauf}}{lstlisting.3.13}{}}
\@writefile{lol}{\contentsline {lstlisting}{\numberline {3.13}Listingbeispiel mit dem Style \textit  {Schauf}}{32}{lstlisting.3.13}\protected@file@percent }
\newlabel{listing-style-schauf-xml}{{3.14}{32}{Listingbeispiel mit dem Style \textit {Schauf-XML}}{lstlisting.3.14}{}}
\@writefile{lol}{\contentsline {lstlisting}{\numberline {3.14}Listingbeispiel mit dem Style \textit  {Schauf-XML}}{32}{lstlisting.3.14}\protected@file@percent }
\newlabel{listing-style-cmd}{{3.15}{32}{Listingbeispiel mit dem Style \textit {CMD}}{lstlisting.3.15}{}}
\@writefile{lol}{\contentsline {lstlisting}{\numberline {3.15}Listingbeispiel mit dem Style \textit  {CMD}}{32}{lstlisting.3.15}\protected@file@percent }
\@writefile{toc}{\contentsline {section}{\numberline {3.6}Matheumgebung}{33}{section.3.6}\protected@file@percent }
\newlabel{kapitel-latex-mathe}{{3.6}{33}{Matheumgebung}{section.3.6}{}}
\newlabel{mathe-inline1}{{3.16}{33}{Matheumgebung Beispiel Inline 1}{lstlisting.3.16}{}}
\@writefile{lol}{\contentsline {lstlisting}{\numberline {3.16}Matheumgebung Beispiel Inline 1}{33}{lstlisting.3.16}\protected@file@percent }
\newlabel{mathe-inline2}{{3.17}{33}{Matheumgebung Beispiel Inline 2}{lstlisting.3.17}{}}
\@writefile{lol}{\contentsline {lstlisting}{\numberline {3.17}Matheumgebung Beispiel Inline 2}{33}{lstlisting.3.17}\protected@file@percent }
\newlabel{mathe-align1}{{3.1}{34}{Matheumgebung}{equation.3.6.1}{}}
\newlabel{listing-align1}{{3.18}{34}{Code für Formel \ref {mathe-align1}}{lstlisting.3.18}{}}
\@writefile{lol}{\contentsline {lstlisting}{\numberline {3.18}Code f\IeC {\"u}r Formel \ref  {mathe-align1}}{34}{lstlisting.3.18}\protected@file@percent }
\newlabel{mathe-align2}{{3.2}{34}{Matheumgebung}{equation.3.6.2}{}}
\newlabel{listing-align2}{{3.19}{34}{Code für Formel \ref {mathe-align2}}{lstlisting.3.19}{}}
\@writefile{lol}{\contentsline {lstlisting}{\numberline {3.19}Code f\IeC {\"u}r Formel \ref  {mathe-align2}}{34}{lstlisting.3.19}\protected@file@percent }
\newlabel{mathe-align3}{{3.3}{34}{Matheumgebung}{equation.3.6.3}{}}
\newlabel{listing-align3}{{3.20}{35}{Code für Formel \ref {mathe-align3}}{lstlisting.3.20}{}}
\@writefile{lol}{\contentsline {lstlisting}{\numberline {3.20}Code f\IeC {\"u}r Formel \ref  {mathe-align3}}{35}{lstlisting.3.20}\protected@file@percent }
\newlabel{mathe-align4}{{3.4}{35}{Matheumgebung}{equation.3.6.4}{}}
\newlabel{listing-align4}{{3.21}{35}{Code für Formel \ref {mathe-align4}}{lstlisting.3.21}{}}
\@writefile{lol}{\contentsline {lstlisting}{\numberline {3.21}Code f\IeC {\"u}r Formel \ref  {mathe-align4}}{35}{lstlisting.3.21}\protected@file@percent }
\newlabel{mathe-align5}{{3.5}{35}{Matheumgebung}{equation.3.6.5}{}}
\newlabel{listing-align5}{{3.22}{36}{Code für Formel \ref {mathe-align5}}{lstlisting.3.22}{}}
\@writefile{lol}{\contentsline {lstlisting}{\numberline {3.22}Code f\IeC {\"u}r Formel \ref  {mathe-align5}}{36}{lstlisting.3.22}\protected@file@percent }
\newlabel{mathe-align6}{{3.6}{36}{Matheumgebung}{equation.3.6.6}{}}
\newlabel{listing-align6}{{3.23}{36}{Code für Formel \ref {mathe-align6}}{lstlisting.3.23}{}}
\@writefile{lol}{\contentsline {lstlisting}{\numberline {3.23}Code f\IeC {\"u}r Formel \ref  {mathe-align6}}{36}{lstlisting.3.23}\protected@file@percent }
\newlabel{mathe-align7}{{3.7}{36}{Matheumgebung}{equation.3.6.7}{}}
\newlabel{listing-align7}{{3.24}{36}{Code für Formel \ref {mathe-align7}}{lstlisting.3.24}{}}
\@writefile{lol}{\contentsline {lstlisting}{\numberline {3.24}Code f\IeC {\"u}r Formel \ref  {mathe-align7}}{36}{lstlisting.3.24}\protected@file@percent }
\newlabel{mathe-align8}{{3.8}{37}{Matheumgebung}{equation.3.6.8}{}}
\newlabel{listing-align8}{{3.25}{37}{Code für Formel \ref {mathe-align8}}{lstlisting.3.25}{}}
\@writefile{lol}{\contentsline {lstlisting}{\numberline {3.25}Code f\IeC {\"u}r Formel \ref  {mathe-align8}}{37}{lstlisting.3.25}\protected@file@percent }
\@setckpt{latex-einfuehrung/fortgeschrittenes}{
\setcounter{page}{38}
\setcounter{equation}{8}
\setcounter{enumi}{4}
\setcounter{enumii}{1}
\setcounter{enumiii}{1}
\setcounter{enumiv}{1}
\setcounter{footnote}{0}
\setcounter{mpfootnote}{0}
\setcounter{part}{0}
\setcounter{chapter}{3}
\setcounter{section}{6}
\setcounter{subsection}{0}
\setcounter{subsubsection}{0}
\setcounter{paragraph}{0}
\setcounter{subparagraph}{0}
\setcounter{figure}{5}
\setcounter{table}{7}
\setcounter{blindtext}{1}
\setcounter{Blindtext}{5}
\setcounter{blind@countparstart}{0}
\setcounter{blindlist}{0}
\setcounter{blindlistlevel}{0}
\setcounter{blindlist@level}{0}
\setcounter{blind@listcount}{0}
\setcounter{blind@levelcount}{0}
\setcounter{blind@randomcount}{0}
\setcounter{blind@randommax}{0}
\setcounter{blind@pangramcount}{0}
\setcounter{blind@pangrammax}{0}
\setcounter{Item}{7}
\setcounter{Hfootnote}{0}
\setcounter{bookmark@seq@number}{0}
\setcounter{NAT@ctr}{0}
\setcounter{float@type}{8}
\setcounter{caption@flags}{0}
\setcounter{ContinuedFloat}{0}
\setcounter{subfigure}{3}
\setcounter{subtable}{0}
\setcounter{SC@C}{1}
\setcounter{svg@param@lastpage}{0}
\setcounter{svg@param@currpage}{-1}
\setcounter{LT@tables}{0}
\setcounter{LT@chunks}{0}
\setcounter{parentequation}{0}
\setcounter{AM@survey}{0}
\setcounter{lstnumber}{21}
\setcounter{section@level}{1}
\setcounter{lstlisting}{25}
}
