\relax 
\providecommand\hyper@newdestlabel[2]{}
\providecommand{\transparent@use}[1]{}
\@writefile{toc}{\contentsline {chapter}{\numberline {2}\LaTeX  \ - Grundlagen}{4}{chapter.2}\protected@file@percent }
\@writefile{lof}{\addvspace {10\p@ }}
\@writefile{lot}{\addvspace {10\p@ }}
\@writefile{lol}{\addvspace {10\p@ }}
\newlabel{kapitel-grundlagen}{{2}{4}{\LaTeX \ - Grundlagen}{chapter.2}{}}
\@writefile{toc}{\contentsline {section}{\numberline {2.1}Dokumentaufbau}{4}{section.2.1}\protected@file@percent }
\newlabel{kapitel-grundlagen-dokumentaufbau}{{2.1}{4}{Dokumentaufbau}{section.2.1}{}}
\@writefile{toc}{\contentsline {subsection}{\numberline {2.1.1}Pakete}{4}{subsection.2.1.1}\protected@file@percent }
\newlabel{kapitel-grundlagen-dokumentaufbau-pakete}{{2.1.1}{4}{Pakete}{subsection.2.1.1}{}}
\@writefile{toc}{\contentsline {subsection}{\numberline {2.1.2}Dokument-Umgebung}{5}{subsection.2.1.2}\protected@file@percent }
\newlabel{kapitel-grundlagen-dokumentaufbau-dokument}{{2.1.2}{5}{Dokument-Umgebung}{subsection.2.1.2}{}}
\@writefile{toc}{\contentsline {subsection}{\numberline {2.1.3}Diese Vorlage}{5}{subsection.2.1.3}\protected@file@percent }
\newlabel{kapitel-grundlagen-dokumentaufbau-vorlage}{{2.1.3}{5}{Diese Vorlage}{subsection.2.1.3}{}}
\@writefile{toc}{\contentsline {subsection}{\numberline {2.1.4}Gliederung \& Inhaltsverzeichnis}{5}{subsection.2.1.4}\protected@file@percent }
\newlabel{kapitel-grundlagen-dokumentaufbau-gliederung}{{2.1.4}{5}{Gliederung \& Inhaltsverzeichnis}{subsection.2.1.4}{}}
\@writefile{lot}{\contentsline {table}{\numberline {2.1}{\ignorespaces Befehle zur Gliederung von Dokumenten\relax }}{6}{table.caption.2}\protected@file@percent }
\providecommand*\caption@xref[2]{\@setref\relax\@undefined{#1}}
\newlabel{table-gliederung}{{2.1}{6}{Befehle zur Gliederung von Dokumenten\relax }{table.caption.2}{}}
\@writefile{toc}{\contentsline {section}{\numberline {2.2}Textformatierung}{6}{section.2.2}\protected@file@percent }
\newlabel{kapitel-grundlagen-text}{{2.2}{6}{Textformatierung}{section.2.2}{}}
\@writefile{toc}{\contentsline {subsection}{\numberline {2.2.1}Textstyle}{7}{subsection.2.2.1}\protected@file@percent }
\newlabel{kapitel-grundlagen-text-style}{{2.2.1}{7}{Textstyle}{subsection.2.2.1}{}}
\@writefile{lot}{\contentsline {table}{\numberline {2.2}{\ignorespaces Befehle f\IeC {\"u}r den Style von Texten\relax }}{7}{table.caption.3}\protected@file@percent }
\newlabel{table-text-style}{{2.2}{7}{Befehle für den Style von Texten\relax }{table.caption.3}{}}
\@writefile{toc}{\contentsline {subsection}{\numberline {2.2.2}Textgr\IeC {\"o}\IeC {\ss }e}{7}{subsection.2.2.2}\protected@file@percent }
\newlabel{kapitel-grundlagen-text-groesse}{{2.2.2}{7}{Textgröße}{subsection.2.2.2}{}}
\@writefile{lot}{\contentsline {table}{\numberline {2.3}{\ignorespaces Befehle f\IeC {\"u}r die Gr\IeC {\"o}\IeC {\ss }e von Texten\relax }}{7}{table.caption.4}\protected@file@percent }
\newlabel{table-text-groesse}{{2.3}{7}{Befehle für die Größe von Texten\relax }{table.caption.4}{}}
\@writefile{toc}{\contentsline {subsection}{\numberline {2.2.3}Textfarbe}{8}{subsection.2.2.3}\protected@file@percent }
\newlabel{kapitel-grundlagen-text-farbe}{{2.2.3}{8}{Textfarbe}{subsection.2.2.3}{}}
\@writefile{toc}{\contentsline {subsection}{\numberline {2.2.4}Textposition}{8}{subsection.2.2.4}\protected@file@percent }
\newlabel{kapitel-grundlagen-text-position}{{2.2.4}{8}{Textposition}{subsection.2.2.4}{}}
\newlabel{listing-buendig}{{2.1}{8}{Beispiel für die Änderung der Bündigkeit von Texten}{lstlisting.2.1}{}}
\@writefile{lol}{\contentsline {lstlisting}{\numberline {2.1}Beispiel f\IeC {\"u}r die \IeC {\"A}nderung der B\IeC {\"u}ndigkeit von Texten.}{8}{lstlisting.2.1}\protected@file@percent }
\newlabel{listing-textblock}{{2.2}{9}{Beispiel für die absolute Positionierung eines Textblocks mit Hilfe der \textit {textblock}-Umgebung}{lstlisting.2.2}{}}
\@writefile{lol}{\contentsline {lstlisting}{\numberline {2.2}Beispiel f\IeC {\"u}r die absolute Positionierung eines Textblocks mit Hilfe der \textit  {textblock}-Umgebung.}{9}{lstlisting.2.2}\protected@file@percent }
\@writefile{toc}{\contentsline {subsection}{\numberline {2.2.5}Leerzeichen}{9}{subsection.2.2.5}\protected@file@percent }
\newlabel{kapitel-grundlagen-text-leerzeichen}{{2.2.5}{9}{Leerzeichen}{subsection.2.2.5}{}}
\@writefile{lot}{\contentsline {table}{\numberline {2.4}{\ignorespaces Befehle f\IeC {\"u}r unterschiedlich gro\IeC {\ss }e Leerzeichen.\relax }}{9}{table.caption.7}\protected@file@percent }
\newlabel{table-text-spaces}{{2.4}{9}{Befehle für unterschiedlich große Leerzeichen.\relax }{table.caption.7}{}}
\@writefile{toc}{\contentsline {subsection}{\numberline {2.2.6}Abs\IeC {\"a}tze und neue Zeilen}{10}{subsection.2.2.6}\protected@file@percent }
\newlabel{kapitel-grundlagen-text-absatz}{{2.2.6}{10}{Absätze und neue Zeilen}{subsection.2.2.6}{}}
\newlabel{listing-absatz1}{{2.3}{10}{Beispiel keine neue Zeile 1}{lstlisting.2.3}{}}
\@writefile{lol}{\contentsline {lstlisting}{\numberline {2.3}Beispiel keine neue Zeile 1.}{10}{lstlisting.2.3}\protected@file@percent }
\newlabel{listing-absatz2}{{2.4}{10}{Beispiel keine neue Zeile 2}{lstlisting.2.4}{}}
\@writefile{lol}{\contentsline {lstlisting}{\numberline {2.4}Beispiel keine neue Zeile 2.}{10}{lstlisting.2.4}\protected@file@percent }
\newlabel{listing-absatz3}{{2.5}{10}{Beispiel neuer Absatz}{lstlisting.2.5}{}}
\@writefile{lol}{\contentsline {lstlisting}{\numberline {2.5}Beispiel neuer Absatz.}{10}{lstlisting.2.5}\protected@file@percent }
\newlabel{listing-absatz4}{{2.6}{11}{Beispiel neue Zeile}{lstlisting.2.6}{}}
\@writefile{lol}{\contentsline {lstlisting}{\numberline {2.6}Beispiel neue Zeile.}{11}{lstlisting.2.6}\protected@file@percent }
\newlabel{listing-absatz5}{{2.7}{11}{Beispiel neue Zeile mit freier Zeile}{lstlisting.2.7}{}}
\@writefile{lol}{\contentsline {lstlisting}{\numberline {2.7}Beispiel neue Zeile mit freier Zeile.}{11}{lstlisting.2.7}\protected@file@percent }
\@writefile{toc}{\contentsline {section}{\numberline {2.3}Sonderzeichen}{11}{section.2.3}\protected@file@percent }
\newlabel{kapitel-grundlagen-zeichen}{{2.3}{11}{Sonderzeichen}{section.2.3}{}}
\@writefile{toc}{\contentsline {section}{\numberline {2.4}Verzeichnisse}{12}{section.2.4}\protected@file@percent }
\newlabel{kapitel-grundlagen-verzeichnisse}{{2.4}{12}{Verzeichnisse}{section.2.4}{}}
\@setckpt{latex-einfuehrung/grundlagen}{
\setcounter{page}{13}
\setcounter{equation}{0}
\setcounter{enumi}{0}
\setcounter{enumii}{0}
\setcounter{enumiii}{0}
\setcounter{enumiv}{0}
\setcounter{footnote}{0}
\setcounter{mpfootnote}{0}
\setcounter{part}{0}
\setcounter{chapter}{2}
\setcounter{section}{4}
\setcounter{subsection}{0}
\setcounter{subsubsection}{0}
\setcounter{paragraph}{0}
\setcounter{subparagraph}{0}
\setcounter{figure}{0}
\setcounter{table}{4}
\setcounter{blindtext}{1}
\setcounter{Blindtext}{5}
\setcounter{blind@countparstart}{0}
\setcounter{blindlist}{0}
\setcounter{blindlistlevel}{0}
\setcounter{blindlist@level}{0}
\setcounter{blind@listcount}{0}
\setcounter{blind@levelcount}{0}
\setcounter{blind@randomcount}{0}
\setcounter{blind@randommax}{0}
\setcounter{blind@pangramcount}{0}
\setcounter{blind@pangrammax}{0}
\setcounter{Item}{0}
\setcounter{Hfootnote}{0}
\setcounter{bookmark@seq@number}{0}
\setcounter{NAT@ctr}{0}
\setcounter{float@type}{8}
\setcounter{caption@flags}{0}
\setcounter{ContinuedFloat}{0}
\setcounter{subfigure}{0}
\setcounter{subtable}{0}
\setcounter{SC@C}{0}
\setcounter{svg@param@lastpage}{0}
\setcounter{svg@param@currpage}{-1}
\setcounter{LT@tables}{0}
\setcounter{LT@chunks}{0}
\setcounter{parentequation}{0}
\setcounter{AM@survey}{0}
\setcounter{lstnumber}{4}
\setcounter{section@level}{1}
\setcounter{lstlisting}{7}
}
