\relax 
\providecommand\hyper@newdestlabel[2]{}
\providecommand{\transparent@use}[1]{}
\@writefile{toc}{\contentsline {chapter}{\numberline {1}Einleitung}{3}{chapter.1}\protected@file@percent }
\@writefile{lof}{\addvspace {10\p@ }}
\@writefile{lot}{\addvspace {10\p@ }}
\@writefile{lol}{\addvspace {10\p@ }}
\newlabel{Einleitung}{{1}{3}{Einleitung}{chapter.1}{}}
\@writefile{toc}{\contentsline {section}{\numberline {1.1}Desktopinstallation}{3}{section.1.1}\protected@file@percent }
\newlabel{Desktopinstallation}{{1.1}{3}{Desktopinstallation}{section.1.1}{}}
\@writefile{toc}{\contentsline {chapter}{\numberline {2}Serverinstallation}{5}{chapter.2}\protected@file@percent }
\@writefile{lof}{\addvspace {10\p@ }}
\@writefile{lot}{\addvspace {10\p@ }}
\@writefile{lol}{\addvspace {10\p@ }}
\newlabel{Serverinstallation}{{2}{5}{Serverinstallation}{chapter.2}{}}
\@writefile{toc}{\contentsline {section}{\numberline {2.1}Anforderungen}{5}{section.2.1}\protected@file@percent }
\newlabel{Server-Anforderungen}{{2.1}{5}{Anforderungen}{section.2.1}{}}
\@writefile{toc}{\contentsline {section}{\numberline {2.2}Internetinformationsdienst installation}{5}{section.2.2}\protected@file@percent }
\newlabel{Server-IIS-Installation}{{2.2}{5}{Internetinformationsdienst installation}{section.2.2}{}}
\@writefile{toc}{\contentsline {section}{\numberline {2.3}MongoDB installieren}{12}{section.2.3}\protected@file@percent }
\newlabel{MongoDB-installieren}{{2.3}{12}{MongoDB installieren}{section.2.3}{}}
\@writefile{toc}{\contentsline {section}{\numberline {2.4}Energieoptionen}{20}{section.2.4}\protected@file@percent }
\newlabel{Energieoptionen}{{2.4}{20}{Energieoptionen}{section.2.4}{}}
\@writefile{toc}{\contentsline {section}{\numberline {2.5}Backend installieren}{22}{section.2.5}\protected@file@percent }
\newlabel{Server-Backend-installieren}{{2.5}{22}{Backend installieren}{section.2.5}{}}
\@writefile{toc}{\contentsline {section}{\numberline {2.6}Frontend installieren}{26}{section.2.6}\protected@file@percent }
\newlabel{Server-Frontend-installieren}{{2.6}{26}{Frontend installieren}{section.2.6}{}}
\@setckpt{chapters/inhalt}{
\setcounter{page}{38}
\setcounter{equation}{0}
\setcounter{enumi}{0}
\setcounter{enumii}{0}
\setcounter{enumiii}{0}
\setcounter{enumiv}{0}
\setcounter{footnote}{0}
\setcounter{mpfootnote}{0}
\setcounter{part}{0}
\setcounter{chapter}{2}
\setcounter{section}{6}
\setcounter{subsection}{0}
\setcounter{subsubsection}{0}
\setcounter{paragraph}{0}
\setcounter{subparagraph}{0}
\setcounter{figure}{0}
\setcounter{table}{0}
\setcounter{blindtext}{1}
\setcounter{Blindtext}{5}
\setcounter{blind@countparstart}{0}
\setcounter{blindlist}{0}
\setcounter{blindlistlevel}{0}
\setcounter{blindlist@level}{0}
\setcounter{blind@listcount}{0}
\setcounter{blind@levelcount}{0}
\setcounter{blind@randomcount}{0}
\setcounter{blind@randommax}{0}
\setcounter{blind@pangramcount}{0}
\setcounter{blind@pangrammax}{0}
\setcounter{Item}{0}
\setcounter{Hfootnote}{0}
\setcounter{bookmark@seq@number}{0}
\setcounter{NAT@ctr}{0}
\setcounter{float@type}{8}
\setcounter{caption@flags}{0}
\setcounter{ContinuedFloat}{0}
\setcounter{subfigure}{0}
\setcounter{subtable}{0}
\setcounter{SC@C}{0}
\setcounter{svg@param@lastpage}{0}
\setcounter{svg@param@currpage}{-1}
\setcounter{LT@tables}{0}
\setcounter{LT@chunks}{0}
\setcounter{parentequation}{0}
\setcounter{AM@survey}{0}
\setcounter{lstnumber}{1}
\setcounter{section@level}{1}
\setcounter{lstlisting}{0}
}
